scrabbleclub\controllers\MemberListController.class
scrabbleclub\models\entities\Scores.class
scrabbleclub\controllers\MemberDetailController.class
scrabbleclub\models\MemberRequest.class
scrabbleclub\models\TempScoreTracker.class
scrabbleclub\models\entities\MemberDetails.class
scrabbleclub\respository\ScoresRepository.class
scrabbleclub\respository\MemberRepository.class
scrabbleclub\models\viewobjects\MemberProfile.class
scrabbleclub\Application.class
scrabbleclub\models\viewobjects\Highscore.class
